{"count":862,"next":"https://de.openlegaldata.io/api/cases/search/?format=json&page=2&text=Mietminderung","previous":null,"results":[{"id":457081,"citing_cases_count":0,"court":"OLGSL","slug":"olgsl-2021-05-05-2-w-1121","date":"2021-05-05","court_jurisdiction":null,"court_level_of_appeal":"Oberlandesgericht","decision_type":"Beschluss","snippets":[{"text":"Soweit durch das Gutachten zusätzlich die Höhe der für die einzelnen Mängel anzusetzenden <em>Mietminderung</em> geklärt werden soll, hat es den Antrag zurückgewiesen.","offset":985,"length":158},{"text":"Die Höhe der <em>Mietminderung</em> knüpft unmittelbar an den Zustand der Mieträume an (vgl. OLG Frankfurt, Beschluss vom 30.","offset":4340,"length":116},{"text":"Diesen Anforderungen genügt die Antragsschrift auch, soweit es um die <em>Mietminderung</em> geht.","offset":7282,"length":89}]},{"id":138812,"citing_cases_count":0,"court":"SGKARLS","slug":"sg-karlsruhe-2011-04-19-s-15-as-298509","date":"2011-04-19","court_jurisdiction":"Sozialgerichtsbarkeit","court_level_of_appeal":null,"decision_type":"Urteil","snippets":[{"text":"Dies würde zudem eine vorherige rechtliche Prüfung seitens des Beklagten voraussetzen, ob die <em>Mietminderung</em> bzw. die Aufrechnungen berechtigt sind.","offset":7486,"length":147},{"text":"Darüber hinaus hat der Kläger noch vor der Anordnung der Direktzahlung dem Beklagten mitgeteilt, die <em>Mietminderung</em> sei beendet und er werde die Mietzahlungen wiederaufnehmen.","offset":9396,"length":174},{"text":"Dies würde zudem eine vorherige rechtliche Prüfung seitens des Beklagten voraussetzen, ob die <em>Mietminderung</em> bzw. die Aufrechnungen berechtigt sind.","offset":7486,"length":147}]},{"id":94214,"citing_cases_count":0,"court":"POLGZWE","slug":"polgzwe-2015-12-03-6-u-4014","date":"2015-12-03","court_jurisdiction":null,"court_level_of_appeal":"Oberlandesgericht","decision_type":"Urteil","snippets":[{"text":"Dies reichte aber unter den hier gegebenen Umständen nicht aus.\n\n\n\n\n\n\n45\n8.Umfang der <em>Mietminderung</em>, Schätzung\n\n\n46\nDie Erstrichterin hat die Umfang der <em>Mietminderung</em> auf 20 % bis Mitte April 2013 und","offset":19309,"length":200},{"text":"handelt es sich bei der Bemessung der <em>Mietminderung</em> um richterliche Rechtsanwendung (oben 8.).","offset":20714,"length":94},{"text":"Die „Angemessenheit“ einer <em>Mietminderung</em> um 50 % werde deutlich.","offset":21298,"length":64}]},{"id":461293,"citing_cases_count":0,"court":"LGD","slug":"lg-dusseldorf-2018-09-27-14e-o-7216","date":"2018-09-27","court_jurisdiction":"Ordentliche Gerichtsbarkeit","court_level_of_appeal":"Landgericht","decision_type":"Urteil","snippets":[{"text":"Die Mutter des Klägers erhob gegen die <em>Mietminderungen</em> keine Einwände.","offset":6365,"length":70},{"text":"Auch diese <em>Mietminderung</em> erfolgte bis einschließlich April 2013 und umfasste 30 Monate und eine <em>Mietminderung</em> von insgesamt 1.500,00 EUR (vgl. Aufstellung, Anlage K 20).","offset":7003,"length":169},{"text":"<em>Mietminderungen</em>\n97Dem Kläger steht ein Schadensersatzanspruch wegen der durchgeführten <em>Mietminderungen</em> betreffend die Mietverhältnisse F und I aus §§ 280 Abs. 1 S. 1, 675, 611, 398 BGB nicht zu.","offset":35749,"length":194}]},{"id":262578,"citing_cases_count":0,"court":"AGMS","slug":"ag-munster-2007-07-24-3-c-383206","date":"2007-07-24","court_jurisdiction":"Ordentliche Gerichtsbarkeit","court_level_of_appeal":"Amtsgericht","decision_type":"Urteil","snippets":[{"text":"Die <em>Mietminderung</em> erfolgte in den Monaten November, bzw.","offset":701,"length":56},{"text":"Dezember bis Mai und Juni des jeweiligen Jahres.\n            4Der Kläger behauptet, eine <em>Mietminderung</em> stehe dem Beklagten nicht zu, weil es zu keinerlei Belästigung des Beklagten gekommen sei.","offset":758,"length":193},{"text":"Das hier gelegentlich falsche Brennstoffe verwendet werden, berechtigt zur <em>Mietminderung</em> noch nicht.\n            15Darüber hinaus hat die Stadt Z1 im Jahre 2004 festgestellt, dass keine beeinträchtigenden","offset":2970,"length":204}]},{"id":178477,"citing_cases_count":3,"court":"OLGKARL","slug":"olgkarl-2013-09-20-10-w-1813","date":"2013-09-20","court_jurisdiction":null,"court_level_of_appeal":"Oberlandesgericht","decision_type":"Beschluss","snippets":[{"text":"Der Wert der beantragten Feststellung der Berechtigung zur <em>Mietminderung</em> sei gemäß § 48 GKG i.V.m. § 9 ZPO mit dem 42-fachen Betrag der monatlichen Minderung in Ansatz zu bringen.\n    3 Das Landgericht","offset":1547,"length":201},{"text":"Die Feststellung einer <em>Mietminderung</em> (Klageantrag zu b) sei mit der Klage eines Mieters auf Instandsetzungsmaßnahmen vergleichbar.","offset":2015,"length":130},{"text":"Mängelbeseitigungsanspruch des Mieters) gleichsam spiegelbildlich der <em>Mietminderung</em> gleichgesetzt und eine entsprechende Bewertung für gerechtfertigt gehalten hat (BGH, MDR 2000, 975).","offset":15426,"length":184}]},{"id":172445,"citing_cases_count":1,"court":"LSGBW","slug":"lsgbw-2011-10-21-l-12-as-201611","date":"2011-10-21","court_jurisdiction":"Sozialgerichtsbarkeit","court_level_of_appeal":null,"decision_type":"Urteil","snippets":[{"text":"aufnehmen wolle, da die <em>Mietminderung</em> beendet sei.","offset":16205,"length":50},{"text":"Die Direktzahlung an den Vermieter im Mai und Juni 2009 kollidiert daher nicht mit einer vom Kläger gewollten <em>Mietminderung</em>.","offset":16256,"length":124},{"text":"aufnehmen wolle, da die <em>Mietminderung</em> beendet sei.","offset":16205,"length":50}]},{"id":292560,"citing_cases_count":0,"court":"OLGHAM","slug":"olgham-2003-05-21-12-u-1502","date":"2003-05-21","court_jurisdiction":null,"court_level_of_appeal":"Oberlandesgericht","decision_type":"Urteil","snippets":[{"text":"Die von der T vorgenommene <em>Mietminderung</em> sei deutlich zu hoch.","offset":13292,"length":62},{"text":"den Zeitraum von August 2000 bis Oktober 2001 seien statt der <em>Mietminderung</em> durch die Firma T in Höhe von 20 % lediglich 10 % als Mindestminderung gemäß § 287 ZPO zugrundezulegen.","offset":14314,"length":179},{"text":"Eine derartige Schätzung mag in einem Mietprozeß gerechtfertigt sein, wenn es um das Ausmaß der Mietbeeinträchtigung und die danach zu bemessende <em>Mietminderung</em> geht.","offset":23622,"length":165}]},{"id":274180,"citing_cases_count":0,"court":"AGMS","slug":"ag-munster-2006-02-21-3-c-358305","date":"2006-02-21","court_jurisdiction":"Ordentliche Gerichtsbarkeit","court_level_of_appeal":"Amtsgericht","decision_type":"Urteil","snippets":[{"text":"Die genannten <em>Mietminderungen</em> verlangen die Kläger mit der vorliegenden Klage.","offset":1709,"length":78},{"text":"Eine <em>Mietminderung</em> ist im Gesetz nur vorgesehen, wenn sie zu einer erheblichen Beeinträchtigung des Nutzungswertes der Wohnung führen.","offset":5409,"length":134},{"text":"Dass diese Arbeiten für die Beklagte und ihre Familie möglicherweise tagsüber hörbar waren, rechtfertigt noch nicht eine <em>Mietminderung</em>.","offset":5709,"length":135}]},{"id":494182,"citing_cases_count":0,"court":"LGBE","slug":"lg-berlin-2023-02-09-65-s-11122","date":"2023-02-09","court_jurisdiction":null,"court_level_of_appeal":null,"decision_type":"Beschluss","snippets":[{"text":"durch von einem Nachbargrundstück ausgehenden Lärm- und Schmutzimmissionen trägt der Mieter die Darlegungs- und Beweislast für den Mangel als solchen und die Anknüpfungstatsachen für die eingetretene <em>Mietminderung</em>","offset":96,"length":213},{"text":"Da für den Zeitraum ab Spätsommer 2019 gar keine Tatsachen mehr vorgetragen werden, fehlt bereits jede Grundlage für die Schätzung des etwaigen Eintritts einer <em>Mietminderung</em>.","offset":6954,"length":174},{"text":"Den Eintritt einer <em>Mietminderung</em> wegen der Schließgeräusche bzw. Schließdefizite der Hauseingangstür hat das Amtsgericht zu Recht unter Bezugnahme auf § 536 Abs. 1 Satz 3 BGB verneint.","offset":8874,"length":184}]}]}