{"count":8452,"next":"https://de.openlegaldata.io/api/cases/?court__slug=bverwg&format=json&page=2&page_size=2","previous":null,"results":[{"id":455672,"slug":"bverwg-2026-03-25-1-w-vr-126","court":{"id":5,"name":"Bundesverwaltungsgericht","slug":"bverwg","city":null,"state":2,"jurisdiction":"Verwaltungsgerichtsbarkeit","level_of_appeal":"Bundesgericht"},"file_number":"1 W-VR 1.26","date":"2026-03-25","created_date":"2026-04-17T14:05:56Z","updated_date":"2026-05-10T09:16:34Z","type":"Beschluss","ecli":"ECLI:DE:BVerwG:2026:250326B1WVR1.26.0","source_url":""},{"id":354512,"slug":"bverwg-2026-02-23-2-wdb-1825","court":{"id":5,"name":"Bundesverwaltungsgericht","slug":"bverwg","city":null,"state":2,"jurisdiction":"Verwaltungsgerichtsbarkeit","level_of_appeal":"Bundesgericht"},"file_number":"2 WDB 18.25","date":"2026-02-23","created_date":"2026-03-18T12:25:18Z","updated_date":"2026-06-16T15:56:00Z","type":"Beschluss","ecli":"ECLI:DE:BVerwG:2026:230226B2WDB18.25.0","source_url":""}]}